1 10 20
10 1 20
100 200 125
201 210 89
900 1000 174
237164 541965 470
1 1 1
28 79 116
85 3 116
97 34 119
65 37 113
44 63 113
43 86 116
2 17 20
27 4 112
26 95 116
52 42 105
472 263 144
905 532 179
875 119 179
353 257 144
1097 901 174
735 182 171
749 741 96
1005 951 143
1059 235 179
541 366 142
1910 1995 175
1617 1969 180
1904 1281 180
1454 632 182
865 2007 182
1336 2023 180
1537 373 182
1456 1868 180
1408 895 182
1420 307 182
2708 1534 209
2175 1222 180
2575 1422 209
1233 2395 183
857 741 153
968 2654 209
329 447 134
1033 2332 183
1985 2776 209
522 2871 209
558 1487 182
2716 3175 217
2347 2018 183
3298 2368 217
1965 1997 144
2624 2023 209
507 2754 209
3339 541 217
1850 4019 238
2844 3746 238
790 4081 238
872 4381 238
2600 578 209
1199 2332 183
1253 1618 177
982 4831 238
4431 3492 238
3385 1572 217
3747 3862 176
5009 3390 238
5440 5426 161
1443 5687 238
708 5480 238
3490 6038 238
1262 2131 180
1066 671 179
1259 894 182
3247 5657 238
4904 3535 238
3300 5705 238
3955 2177 238
3325 6544 262
4273 2704 238
2900 787 209
4803 4470 197
4947 2087 238
2340 5199 238
5008 3010 238
754 4546 238
6424 4414 262
4045 7837 262
7957 2269 262
5222 7257 262
5158 7903 262
3009 1141 217
7694 5008 262
1852 7252 262
881 4646 238
7063 3249 262
2931 7822 262
2224 4801 238
5935 8847 262
4614 2109 238
9049 5312 262
2350 7510 262
2100 8383 262
3223 7793 262
7397 8792 252
6116 7117 262
9077 6305 257
6683 6607 182
4565 1569 238
7675 9240 252
4903 6096 236
8244 7535 252
6961 3858 262
6359 8483 257
4541 4567 184
8195 7722 252
6784 8459 257
10584 9805 255
6281 2213 262
5402 6340 262
3937 1579 238
2574 9097 262
8474 8940 216
4374 6456 262
1975 2220 170
5344 5497 192
3922 1363 238
3791 7723 262
2929 11084 268
7326 2851 262
1758 3279 217
11016 8121 268
8653 3188 262
9174 5785 262
4084 7686 262
9548 12000 268
1795 4691 238
8577 6179 257
11409 6853 268
9695 10453 255
12053 6250 268
6005 4396 236
3412 8487 262
11197 8326 268
11860 6741 268
7639 1578 262
4927 6411 262
6396 8556 257
3987 1414 238
7767 10544 260
9996 10574 255
10386 11701 268
3873 11104 268
12196 2896 268
9652 5501 262
9172 4237 262
3884 9259 262
